﻿Nombre,Ncontrol,Ntareas,Examen1,Examen2,Asistencia,Proyecto
Erick Baltazar,14121485,9,14.25809541,15.39950455,0.25172736,5.073115453
Salvador Guzman,14121486,4,58.39788496,20.07431297,71.34996008,30.44218494
Juan Carlos,14121487,7,85.60094427,15.61518987,32.00128486,72.77628984
Erick Murillo,14121488,1,23.95558769,8.720421555,13.04407557,59.92013292
Erick Wero,14121489,11,36.47761381,87.38194113,3.960364131,96.93449579
Alan ,14121490,0,89.73933225,65.80703676,27.59794606,45.06242424
Obeth,14121491,0,78.71427403,58.63915031,59.61216975,25.79649867
Carlos Gonzalez,14121461,4,27.48421872,26.81475327,33.38345887,69.61321461
Daniel Ruiz,14121462,11,82.70463181,78.66568572,44.4603658,26.6731296
Alvaro Perez,14121463,6,99.85453479,85.68523268,61.82178932,65.8821549
Luis Ortiz,14121464,6,29.69647596,15.05823679,54.12399284,91.28744196
Jesus Jacobo,14121465,13,46.06790693,25.45064509,52.75667421,22.48673538
Alberto Palmeño,14121466,11,80.30495783,24.19664359,12.16534053,16.52336224
Eduardo Garcia,14121467,9,34.0563171,54.20557066,74.220246,89.49590787
Antonio Hueramo,14121468,7,7.648054124,22.33946613,26.26590971,92.16550678
Jorge Escutia,14121469,6,55.45642146,1.592398519,20.45976446,23.35972889
Alfonso Izquierdo,14121470,5,42.41969173,83.06590561,37.72474959,43.77707047
Jorge Inocencio,14121471,12,69.59146616,81.22892698,62.23293933,43.38822279
Enrique Lundes,14121472,0,69.74707647,50.71348649,67.02787612,41.45845687
Jose Lazaro,14121473,1,6.777045774,60.3482005,60.26116706,86.65106588
Luis Arellano,14121474,11,64.21944057,6.197583363,53.12718569,93.53020794
Jesus Rosales,14121475,6,70.37143431,77.19276269,1.914687499,43.55475974
Manuel Jacobo,14121476,8,96.22212971,64.96231717,78.41052809,86.84474868
